Label	Parent_Type	Parent_Name	Branch	Position
gs_06_pcq2	CcSequence		0	1
A. Personal Details	CcSequence	gs_06_pcq2	0	17
B. Family History	CcSequence	gs_06_pcq2	0	18
C. Medications	CcSequence	gs_06_pcq2	0	19
D. Operations	CcSequence	gs_06_pcq2	0	20
E. Family Health	CcSequence	gs_06_pcq2	0	21
F. Chest Pain	CcSequence	gs_06_pcq2	0	22
G. Musculoskeletal History	CcSequence	gs_06_pcq2	0	23
H. Chronic Pain	CcSequence	gs_06_pcq2	0	24
I. Physical Activity	CcSequence	gs_06_pcq2	0	25
J. Dietary Intake	CcSequence	gs_06_pcq2	0	26
K. Alcohol consumption	CcSequence	gs_06_pcq2	0	27
L. Smoking History	CcSequence	gs_06_pcq2	0	28
M. Exposure to Tobacco Smoke	CcSequence	gs_06_pcq2	0	29
N. Educational and Occupational History	CcSequence	gs_06_pcq2	0	30
O. Household History	CcSequence	gs_06_pcq2	0	31
P. WOMEN ONLY	CcSequence	gs_06_pcq2	0	32
Q. Additional comments	CcSequence	gs_06_pcq2	0	35
